…
```r
readr::read_csv2("../data/P_DiaGrp.csv", trim_ws = TRUE)
```

```
## # A tibble: 72 x 2
##    `Diagnos PrimärOp`                    Diagnosgrupp             
##    <chr>                                 <chr>                    
##  1 M16.9 - Koxartros, ospecificerad      Primär artros            
##  2 M16.1 - Koxartros, primär             Primär artros            
##  3 M16.0 - Koxartros, primär dubbelsidig Primär artros            
##  4 M15.0 - Polyartros                    Primär artros            
##  5 M24.6F - Ankylotisk led               Inflammatorisk ledsjukdom
##  6 M33.1 - Annan dermatomysit            Inflammatorisk ledsjukdom
##  7 M00.9F - Artrit UNS                   Inflammatorisk ledsjukdom
##  8 M13.8 - Artrit, annan specificerad    Inflammatorisk ledsjukdom
##  9 M45.9 - Bechterew, morbus             Inflammatorisk ledsjukdom
## 10 M65.9F - Ospecifik synovit            Inflammatorisk ledsjukdom
## # ... with 62 more rows
```
…
